<svg xmlns="http://www.w3.org/2000/svg" viewBox="0 0 32.121 18.182">
    <defs>
        <style>
            .asd{fill:none!important;stroke:#aba093;stroke-miterlimit:10;stroke-width:3px;}
        </style>
    </defs>
    <path d="M24,41,39,26,54,41" class="asd" transform="translate(55.06 42.061) rotate(180)"/>
</svg>
