<svg xmlns="http://www.w3.org/2000/svg" width="28" height="25" viewBox="0 0 28 25">
  <g id="Group_4219" data-name="Group 4219" transform="translate(-4 -5)">
    <path id="Path_4413" data-name="Path 4413" d="M31,8H13.859A3.982,3.982,0,0,0,6.141,8H5a1,1,0,0,0,0,2H6.141a3.982,3.982,0,0,0,7.718,0H31a1,1,0,0,0,0-2ZM11.722,10A1.938,1.938,0,1,1,12,9,1.993,1.993,0,0,1,11.722,10Z" fill="#aba093"/>
    <path id="Path_4414" data-name="Path 4414" d="M31,16H21.859a3.982,3.982,0,0,0-7.718,0H5a1,1,0,0,0,0,2h9.141a3.982,3.982,0,0,0,7.718,0H31a1,1,0,0,0,0-2ZM18,19a2.024,2.024,0,1,1,1.722-1A1.993,1.993,0,0,1,18,19Z" fill="#aba093"/>
    <path id="Path_4415" data-name="Path 4415" d="M31,25H29.859a3.982,3.982,0,0,0-7.718,0H5a1,1,0,0,0,0,2H22.141a3.982,3.982,0,0,0,7.718,0H31a1,1,0,0,0,0-2Zm-5,3a2.024,2.024,0,1,1,1.722-1A1.993,1.993,0,0,1,26,28Z" fill="#aba093"/>
  </g>
</svg>
