<svg xmlns="http://www.w3.org/2000/svg" width="1402" height="1122" viewBox="0 0 1402 1122">
  <g id="Group_4304" data-name="Group 4304" transform="translate(-259 -8165.759)">
    <rect id="c738914983157c113945525d25621985" width="518" height="518" stroke-width="44" fill="#8e8e8e" stroke="#8e8e8e" transform="translate(281 8187.759)"/>
    <rect id="c738914983157c113945525d25621985-2" data-name="c738914983157c113945525d25621985" width="518" height="518" transform="translate(841 8747.759)" fill="#c6c6c6" stroke="#c6c6c6" stroke-width="44"/>
    <rect id="c738914983157c113945525d25621985-3" data-name="c738914983157c113945525d25621985" width="238" height="238" transform="translate(841 8187.759)" fill="#656565" stroke="#656565" stroke-width="44"/>
    <rect id="c738914983157c113945525d25621985-4" data-name="c738914983157c113945525d25621985" width="238" height="238" transform="translate(281 8747.759)" fill="#c6c6c6" stroke="#c6c6c6" stroke-width="44"/>
    <rect id="c738914983157c113945525d25621985-5" data-name="c738914983157c113945525d25621985" width="238" height="238" transform="translate(841 8467.759)" fill="#8e8e8e" stroke="#8e8e8e" stroke-width="44"/>
    <rect id="c738914983157c113945525d25621985-6" data-name="c738914983157c113945525d25621985" width="238" height="238" transform="translate(281 9027.759)" fill="#8e8e8e" stroke="#8e8e8e" stroke-width="44"/>
    <rect id="c738914983157c113945525d25621985-7" data-name="c738914983157c113945525d25621985" width="238" height="238" transform="translate(1121 8187.759)" fill="#8e8e8e" stroke="#8e8e8e" stroke-width="44"/>
    <rect id="c738914983157c113945525d25621985-8" data-name="c738914983157c113945525d25621985" width="238" height="238" transform="translate(561 8747.759)" fill="#656565" stroke="#656565" stroke-width="44"/>
    <rect id="c738914983157c113945525d25621985-9" data-name="c738914983157c113945525d25621985" width="238" height="238" transform="translate(1121 8467.759)" fill="#656565" stroke="#656565" stroke-width="44"/>
    <rect id="c738914983157c113945525d25621985-10" data-name="c738914983157c113945525d25621985" width="238" height="238" transform="translate(561 9027.759)" fill="#c6c6c6" stroke="#c6c6c6" stroke-width="44"/>
    <rect id="c738914983157c113945525d25621985-11" data-name="c738914983157c113945525d25621985" width="238" height="238" transform="translate(1401 8187.759)" fill="#656565" stroke="#656565" stroke-width="44"/>
    <rect id="c738914983157c113945525d25621985-12" data-name="c738914983157c113945525d25621985" width="238" height="238" transform="translate(1401 8747.759)" fill="#8e8e8e" stroke="#8e8e8e" stroke-width="44"/>
    <rect id="c738914983157c113945525d25621985-13" data-name="c738914983157c113945525d25621985" width="238" height="238" transform="translate(1401 8467.759)" fill="#c6c6c6" stroke="#c6c6c6" stroke-width="44"/>
    <rect id="c738914983157c113945525d25621985-14" data-name="c738914983157c113945525d25621985" width="238" height="238" transform="translate(1401 9027.759)" fill="#656565" stroke="#656565" stroke-width="44"/>
  </g>
</svg>
