<svg xmlns="http://www.w3.org/2000/svg" width="16.552" height="23.651" viewBox="0 0 16.552 23.651">
  <g id="Group_2516" data-name="Group 2516" transform="translate(0 0)">
    <path id="Path_4002" data-name="Path 4002" d="M8.323,0A8.269,8.269,0,0,0,.048,8.276c0,6.209,8.276,15.375,8.276,15.375S16.6,14.485,16.6,8.276A8.269,8.269,0,0,0,8.323,0Zm0,11.232A2.956,2.956,0,1,1,11.28,8.276a2.956,2.956,0,0,1-2.956,2.956Z" transform="translate(-0.048)" fill="#333f65" fill-rule="evenodd"/>
  </g>
</svg>
